<?xml version="1.0" encoding="utf-8"?>
<!-- Generator: Adobe Illustrator 23.0.1, SVG Export Plug-In . SVG Version: 6.00 Build 0)  -->
<svg version="1.1" id="Layer_1" xmlns="http://www.w3.org/2000/svg" xmlns:xlink="http://www.w3.org/1999/xlink" x="0px" y="0px"
	 viewBox="0 0 75.41 75.41" style="enable-background:new 0 0 75.41 75.41;" xml:space="preserve">
<style type="text/css">
	.st0{fill:none;stroke:#000000;stroke-width:4;stroke-miterlimit:10;}
	.st1{fill:none;stroke:#000000;stroke-width:2;stroke-miterlimit:10;}
	.st2{fill:none;}
</style>
<g>
	<rect class="st2" width="75.41" height="75.41"/>
	<path d="M56.59,13.04c-0.62,0-1.25,0.04-1.88,0.11c-0.09-0.14-0.18-0.28-0.28-0.42c-0.11-0.16-0.21-0.33-0.32-0.49
		c-0.31-0.46-0.64-0.9-0.99-1.32c-0.04-0.05-0.09-0.1-0.13-0.15c-0.37-0.44-0.75-0.86-1.15-1.27c-0.02-0.02-0.04-0.05-0.07-0.07
		c-1.81-1.82-3.95-3.26-6.3-4.25c-0.01,0-0.01,0-0.01-0.01c-0.57-0.24-1.15-0.45-1.75-0.64c-0.07-0.02-0.14-0.04-0.21-0.06
		c-0.55-0.17-1.1-0.31-1.67-0.43c-0.05-0.01-0.1-0.02-0.15-0.03c-0.58-0.12-1.17-0.2-1.76-0.27c-0.13-0.01-0.26-0.03-0.4-0.04
		c-0.6-0.05-1.21-0.09-1.82-0.09s-1.22,0.04-1.82,0.09c-0.13,0.01-0.26,0.02-0.4,0.04c-0.59,0.07-1.18,0.15-1.76,0.27
		c-0.05,0.01-0.1,0.02-0.15,0.03c-0.56,0.12-1.12,0.26-1.67,0.43c-0.07,0.02-0.14,0.04-0.21,0.06c-0.59,0.19-1.18,0.4-1.75,0.64
		c-0.01,0-0.01,0-0.01,0.01c-2.35,0.99-4.49,2.43-6.3,4.25c-0.02,0.02-0.05,0.05-0.07,0.07c-0.4,0.41-0.79,0.83-1.15,1.27
		c-0.04,0.05-0.09,0.1-0.13,0.15c-0.35,0.42-0.68,0.87-0.99,1.32c-0.11,0.16-0.22,0.33-0.32,0.49c-0.09,0.14-0.19,0.28-0.28,0.42
		c-0.63-0.07-1.26-0.11-1.88-0.11c-9.44,0-17.11,7.68-17.11,17.11c0,8.01,5.57,14.88,13.22,16.65v12.51v4v2.5c0,3.31,2.69,6,6,6
		h33.56c3.31,0,6-2.69,6-6v-2.5v-4V46.8c7.65-1.78,13.22-8.65,13.22-16.65C73.7,20.71,66.03,13.04,56.59,13.04z M56.48,65.81
		c0,1.1-0.9,2-2,2H20.93c-1.1,0-2-0.9-2-2v-2.5h37.56V65.81z M58.23,43.14l-1.75,0.22v15.95h-6.32V47.26h-4v12.06H39.7V42.26h-4
		v17.06h-6.46V47.26h-4v12.06h-6.32V43.36l-1.75-0.22c-6.54-0.82-11.47-6.4-11.47-13c0-7.23,5.88-13.11,13.11-13.11
		c0.02,0,0.04,0,0.05,0c-0.71,2.04-1.11,4.22-1.11,6.5h4c0-2.65,0.66-5.15,1.81-7.35c0.11-0.22,0.24-0.43,0.36-0.64
		c0.11-0.19,0.23-0.38,0.35-0.57c0.11-0.18,0.22-0.35,0.34-0.52c0.24-0.35,0.49-0.69,0.76-1.02c0.04-0.05,0.09-0.1,0.13-0.15
		c0.27-0.32,0.55-0.63,0.84-0.92c0.06-0.06,0.12-0.12,0.18-0.18c0.69-0.68,1.44-1.3,2.25-1.85c0.02-0.01,0.03-0.02,0.05-0.03
		c0.41-0.27,0.82-0.53,1.26-0.76c0.01-0.01,0.03-0.02,0.04-0.02c0.44-0.24,0.9-0.46,1.36-0.66c0.02-0.01,0.04-0.02,0.06-0.02
		c0.42-0.17,0.84-0.33,1.28-0.47c0.08-0.03,0.16-0.05,0.24-0.08c0.46-0.14,0.92-0.26,1.4-0.36c0.04-0.01,0.07-0.01,0.11-0.02
		c0.43-0.09,0.86-0.15,1.3-0.2c0.12-0.01,0.24-0.03,0.37-0.04c0.48-0.04,0.96-0.07,1.45-0.07s0.97,0.03,1.45,0.07
		c0.12,0.01,0.25,0.02,0.37,0.04c0.44,0.05,0.87,0.11,1.3,0.2c0.04,0.01,0.07,0.01,0.11,0.02c0.48,0.1,0.94,0.22,1.4,0.36
		c0.08,0.02,0.16,0.05,0.24,0.08c0.43,0.14,0.86,0.29,1.28,0.47c0.02,0.01,0.04,0.02,0.06,0.02c0.47,0.2,0.92,0.42,1.36,0.66
		c0.01,0.01,0.03,0.02,0.04,0.02c0.43,0.24,0.85,0.49,1.26,0.76c0.02,0.01,0.03,0.02,0.05,0.03c0.81,0.55,1.56,1.17,2.25,1.85
		c0.06,0.06,0.12,0.12,0.18,0.18c0.29,0.3,0.57,0.6,0.84,0.92c0.04,0.05,0.09,0.1,0.13,0.15c0.27,0.33,0.52,0.67,0.76,1.02
		c0.12,0.17,0.23,0.35,0.34,0.52c0.12,0.19,0.23,0.38,0.35,0.57c0.12,0.21,0.24,0.42,0.36,0.64c1.15,2.2,1.81,4.7,1.81,7.35h4
		c0-2.28-0.4-4.46-1.11-6.5c0.02,0,0.04,0,0.05,0c7.23,0,13.11,5.88,13.11,13.11C69.7,36.74,64.77,42.33,58.23,43.14z"/>
</g>
</svg>
